^C:\USERS\THENETWORK\SOURCE\REPOS\HOMEWORK16\MAIN.CPP
C:\USERS\THENETWORK\SOURCE\REPOS\HOMEWORK16\DEBUG\VC142.PDB
C:\USERS\THENETWORK\SOURCE\REPOS\HOMEWORK16\DEBUG\VC142.IDB
C:\USERS\THENETWORK\SOURCE\REPOS\HOMEWORK16\DEBUG\MAIN.OBJ
