^C:\USERS\THENETWORK\SOURCE\REPOS\HOMEWORK16\DEBUG\MAIN.OBJ
C:\USERS\THENETWORK\SOURCE\REPOS\HOMEWORK16\DEBUG\HOMEWORK16.EXE
C:\USERS\THENETWORK\SOURCE\REPOS\HOMEWORK16\DEBUG\HOMEWORK16.ILK
C:\USERS\THENETWORK\SOURCE\REPOS\HOMEWORK16\DEBUG\HOMEWORK16.PDB
